MiQroV11/UControl/simulation/qsim/UControl.msim.vcd
$comment
	File created using the following command:
		vcd file UControl.msim.vcd -direction
$end
$date
	Sat May 14 19:54:36 2022
$end
$version
	ModelSim Version 10.5b
$end
$timescale
	1ps
$end

$scope module UControl_vlg_vec_tst $end
$var reg 16 ! Cache [15:0] $end
$var reg 1 " clk $end
$var reg 16 # Flags [15:0] $end
$var reg 8 $ MDR [7:0] $end
$var reg 1 % rst $end
$var wire 1 & ALU [2] $end
$var wire 1 ' ALU [1] $end
$var wire 1 ( ALU [0] $end
$var wire 1 ) MBusMux [4] $end
$var wire 1 * MBusMux [3] $end
$var wire 1 + MBusMux [2] $end
$var wire 1 , MBusMux [1] $end
$var wire 1 - MBusMux [0] $end
$var wire 1 . MuxA $end
$var wire 1 / MuxB $end
$var wire 1 0 MuxC $end
$var wire 1 1 RegEn [3] $end
$var wire 1 2 RegEn [2] $end
$var wire 1 3 RegEn [1] $end
$var wire 1 4 RegEn [0] $end
$var wire 1 5 RegVal [3] $end
$var wire 1 6 RegVal [2] $end
$var wire 1 7 RegVal [1] $end
$var wire 1 8 RegVal [0] $end
$var wire 1 9 UMemOut [60] $end
$var wire 1 : UMemOut [59] $end
$var wire 1 ; UMemOut [58] $end
$var wire 1 < UMemOut [57] $end
$var wire 1 = UMemOut [56] $end
$var wire 1 > UMemOut [55] $end
$var wire 1 ? UMemOut [54] $end
$var wire 1 @ UMemOut [53] $end
$var wire 1 A UMemOut [52] $end
$var wire 1 B UMemOut [51] $end
$var wire 1 C UMemOut [50] $end
$var wire 1 D UMemOut [49] $end
$var wire 1 E UMemOut [48] $end
$var wire 1 F UMemOut [47] $end
$var wire 1 G UMemOut [46] $end
$var wire 1 H UMemOut [45] $end
$var wire 1 I UMemOut [44] $end
$var wire 1 J UMemOut [43] $end
$var wire 1 K UMemOut [42] $end
$var wire 1 L UMemOut [41] $end
$var wire 1 M UMemOut [40] $end
$var wire 1 N UMemOut [39] $end
$var wire 1 O UMemOut [38] $end
$var wire 1 P UMemOut [37] $end
$var wire 1 Q UMemOut [36] $end
$var wire 1 R UMemOut [35] $end
$var wire 1 S UMemOut [34] $end
$var wire 1 T UMemOut [33] $end
$var wire 1 U UMemOut [32] $end
$var wire 1 V UMemOut [31] $end
$var wire 1 W UMemOut [30] $end
$var wire 1 X UMemOut [29] $end
$var wire 1 Y UMemOut [28] $end
$var wire 1 Z UMemOut [27] $end
$var wire 1 [ UMemOut [26] $end
$var wire 1 \ UMemOut [25] $end
$var wire 1 ] UMemOut [24] $end
$var wire 1 ^ UMemOut [23] $end
$var wire 1 _ UMemOut [22] $end
$var wire 1 ` UMemOut [21] $end
$var wire 1 a UMemOut [20] $end
$var wire 1 b UMemOut [19] $end
$var wire 1 c UMemOut [18] $end
$var wire 1 d UMemOut [17] $end
$var wire 1 e UMemOut [16] $end
$var wire 1 f UMemOut [15] $end
$var wire 1 g UMemOut [14] $end
$var wire 1 h UMemOut [13] $end
$var wire 1 i UMemOut [12] $end
$var wire 1 j UMemOut [11] $end
$var wire 1 k UMemOut [10] $end
$var wire 1 l UMemOut [9] $end
$var wire 1 m UMemOut [8] $end
$var wire 1 n UMemOut [7] $end
$var wire 1 o UMemOut [6] $end
$var wire 1 p UMemOut [5] $end
$var wire 1 q UMemOut [4] $end
$var wire 1 r UMemOut [3] $end
$var wire 1 s UMemOut [2] $end
$var wire 1 t UMemOut [1] $end
$var wire 1 u UMemOut [0] $end

$scope module i1 $end
$var wire 1 v gnd $end
$var wire 1 w vcc $end
$var wire 1 x unknown $end
$var tri1 1 y devclrn $end
$var tri1 1 z devpor $end
$var tri1 1 { devoe $end
$var wire 1 | rst~input_o $end
$var wire 1 } Flags[0]~input_o $end
$var wire 1 ~ Flags[1]~input_o $end
$var wire 1 !! Flags[2]~input_o $end
$var wire 1 "! Flags[3]~input_o $end
$var wire 1 #! Flags[4]~input_o $end
$var wire 1 $! Flags[5]~input_o $end
$var wire 1 %! Flags[6]~input_o $end
$var wire 1 &! Flags[7]~input_o $end
$var wire 1 '! Flags[8]~input_o $end
$var wire 1 (! Flags[9]~input_o $end
$var wire 1 )! Flags[10]~input_o $end
$var wire 1 *! Flags[11]~input_o $end
$var wire 1 +! Flags[12]~input_o $end
$var wire 1 ,! Flags[13]~input_o $end
$var wire 1 -! Flags[14]~input_o $end
$var wire 1 .! Flags[15]~input_o $end
$var wire 1 /! MDR[0]~input_o $end
$var wire 1 0! MDR[1]~input_o $end
$var wire 1 1! MDR[2]~input_o $end
$var wire 1 2! MDR[3]~input_o $end
$var wire 1 3! MDR[4]~input_o $end
$var wire 1 4! MDR[5]~input_o $end
$var wire 1 5! MDR[6]~input_o $end
$var wire 1 6! MDR[7]~input_o $end
$var wire 1 7! Cache[0]~input_o $end
$var wire 1 8! Cache[1]~input_o $end
$var wire 1 9! Cache[2]~input_o $end
$var wire 1 :! Cache[3]~input_o $end
$var wire 1 ;! Cache[4]~input_o $end
$var wire 1 <! Cache[5]~input_o $end
$var wire 1 =! Cache[6]~input_o $end
$var wire 1 >! Cache[7]~input_o $end
$var wire 1 ?! Cache[8]~input_o $end
$var wire 1 @! Cache[9]~input_o $end
$var wire 1 A! Cache[10]~input_o $end
$var wire 1 B! Cache[11]~input_o $end
$var wire 1 C! Cache[12]~input_o $end
$var wire 1 D! Cache[13]~input_o $end
$var wire 1 E! Cache[14]~input_o $end
$var wire 1 F! Cache[15]~input_o $end
$var wire 1 G! ~QUARTUS_CREATED_GND~I_combout $end
$var wire 1 H! ~QUARTUS_CREATED_UNVM~~busy $end
$var wire 1 I! ~QUARTUS_CREATED_ADC1~~eoc $end
$var wire 1 J! ~QUARTUS_CREATED_ADC2~~eoc $end
$var wire 1 K! MBusMux[0]~output_o $end
$var wire 1 L! MBusMux[1]~output_o $end
$var wire 1 M! MBusMux[2]~output_o $end
$var wire 1 N! MBusMux[3]~output_o $end
$var wire 1 O! MBusMux[4]~output_o $end
$var wire 1 P! RegEn[0]~output_o $end
$var wire 1 Q! RegEn[1]~output_o $end
$var wire 1 R! RegEn[2]~output_o $end
$var wire 1 S! RegEn[3]~output_o $end
$var wire 1 T! RegVal[0]~output_o $end
$var wire 1 U! RegVal[1]~output_o $end
$var wire 1 V! RegVal[2]~output_o $end
$var wire 1 W! RegVal[3]~output_o $end
$var wire 1 X! MuxA~output_o $end
$var wire 1 Y! MuxB~output_o $end
$var wire 1 Z! MuxC~output_o $end
$var wire 1 [! UMemOut[0]~output_o $end
$var wire 1 \! UMemOut[1]~output_o $end
$var wire 1 ]! UMemOut[2]~output_o $end
$var wire 1 ^! UMemOut[3]~output_o $end
$var wire 1 _! UMemOut[4]~output_o $end
$var wire 1 `! UMemOut[5]~output_o $end
$var wire 1 a! UMemOut[6]~output_o $end
$var wire 1 b! UMemOut[7]~output_o $end
$var wire 1 c! UMemOut[8]~output_o $end
$var wire 1 d! UMemOut[9]~output_o $end
$var wire 1 e! UMemOut[10]~output_o $end
$var wire 1 f! UMemOut[11]~output_o $end
$var wire 1 g! UMemOut[12]~output_o $end
$var wire 1 h! UMemOut[13]~output_o $end
$var wire 1 i! UMemOut[14]~output_o $end
$var wire 1 j! UMemOut[15]~output_o $end
$var wire 1 k! UMemOut[16]~output_o $end
$var wire 1 l! UMemOut[17]~output_o $end
$var wire 1 m! UMemOut[18]~output_o $end
$var wire 1 n! UMemOut[19]~output_o $end
$var wire 1 o! UMemOut[20]~output_o $end
$var wire 1 p! UMemOut[21]~output_o $end
$var wire 1 q! UMemOut[22]~output_o $end
$var wire 1 r! UMemOut[23]~output_o $end
$var wire 1 s! UMemOut[24]~output_o $end
$var wire 1 t! UMemOut[25]~output_o $end
$var wire 1 u! UMemOut[26]~output_o $end
$var wire 1 v! UMemOut[27]~output_o $end
$var wire 1 w! UMemOut[28]~output_o $end
$var wire 1 x! UMemOut[29]~output_o $end
$var wire 1 y! UMemOut[30]~output_o $end
$var wire 1 z! UMemOut[31]~output_o $end
$var wire 1 {! UMemOut[32]~output_o $end
$var wire 1 |! UMemOut[33]~output_o $end
$var wire 1 }! UMemOut[34]~output_o $end
$var wire 1 ~! UMemOut[35]~output_o $end
$var wire 1 !" UMemOut[36]~output_o $end
$var wire 1 "" UMemOut[37]~output_o $end
$var wire 1 #" UMemOut[38]~output_o $end
$var wire 1 $" UMemOut[39]~output_o $end
$var wire 1 %" UMemOut[40]~output_o $end
$var wire 1 &" UMemOut[41]~output_o $end
$var wire 1 '" UMemOut[42]~output_o $end
$var wire 1 (" UMemOut[43]~output_o $end
$var wire 1 )" UMemOut[44]~output_o $end
$var wire 1 *" UMemOut[45]~output_o $end
$var wire 1 +" UMemOut[46]~output_o $end
$var wire 1 ," UMemOut[47]~output_o $end
$var wire 1 -" UMemOut[48]~output_o $end
$var wire 1 ." UMemOut[49]~output_o $end
$var wire 1 /" UMemOut[50]~output_o $end
$var wire 1 0" UMemOut[51]~output_o $end
$var wire 1 1" UMemOut[52]~output_o $end
$var wire 1 2" UMemOut[53]~output_o $end
$var wire 1 3" UMemOut[54]~output_o $end
$var wire 1 4" UMemOut[55]~output_o $end
$var wire 1 5" UMemOut[56]~output_o $end
$var wire 1 6" UMemOut[57]~output_o $end
$var wire 1 7" UMemOut[58]~output_o $end
$var wire 1 8" UMemOut[59]~output_o $end
$var wire 1 9" UMemOut[60]~output_o $end
$var wire 1 :" ALU[0]~output_o $end
$var wire 1 ;" ALU[1]~output_o $end
$var wire 1 <" ALU[2]~output_o $end
$var wire 1 =" clk~input_o $end
$var wire 1 >" clk~inputclkctrl_outclk $end
$var wire 1 ?" NextAddUC[0]~0_combout $end
$var wire 1 @" address[0]~feeder_combout $end
$var wire 1 A" Equal1~0_combout $end
$var wire 1 B" NextAddUC[1]~feeder_combout $end
$var wire 1 C" address[1]~feeder_combout $end
$var wire 1 D" Equal0~0_combout $end
$var wire 1 E" address [15] $end
$var wire 1 F" address [14] $end
$var wire 1 G" address [13] $end
$var wire 1 H" address [12] $end
$var wire 1 I" address [11] $end
$var wire 1 J" address [10] $end
$var wire 1 K" address [9] $end
$var wire 1 L" address [8] $end
$var wire 1 M" address [7] $end
$var wire 1 N" address [6] $end
$var wire 1 O" address [5] $end
$var wire 1 P" address [4] $end
$var wire 1 Q" address [3] $end
$var wire 1 R" address [2] $end
$var wire 1 S" address [1] $end
$var wire 1 T" address [0] $end
$var wire 1 U" NextAddUC [15] $end
$var wire 1 V" NextAddUC [14] $end
$var wire 1 W" NextAddUC [13] $end
$var wire 1 X" NextAddUC [12] $end
$var wire 1 Y" NextAddUC [11] $end
$var wire 1 Z" NextAddUC [10] $end
$var wire 1 [" NextAddUC [9] $end
$var wire 1 \" NextAddUC [8] $end
$var wire 1 ]" NextAddUC [7] $end
$var wire 1 ^" NextAddUC [6] $end
$var wire 1 _" NextAddUC [5] $end
$var wire 1 `" NextAddUC [4] $end
$var wire 1 a" NextAddUC [3] $end
$var wire 1 b" NextAddUC [2] $end
$var wire 1 c" NextAddUC [1] $end
$var wire 1 d" NextAddUC [0] $end
$upscope $end
$upscope $end
$enddefinitions $end
#0
$dumpvars
b0 !
0"
b0 #
b0 $
0%
1(
0'
0&
1-
0,
0+
0*
0)
0.
0/
10
14
03
02
01
18
07
06
05
1u
0t
0s
0r
0q
0p
0o
0n
0m
0l
0k
0j
0i
0h
0g
0f
1e
0d
0c
0b
0a
0`
0_
0^
0]
0\
0[
0Z
0Y
0X
0W
0V
1U
0T
0S
0R
0Q
0P
0O
0N
0M
0L
1K
0J
0I
1H
0G
0F
0E
1D
0C
0B
1A
0@
0?
0>
1=
0<
0;
0:
09
0v
1w
xx
1y
1z
1{
0|
0}
0~
0!!
0"!
0#!
0$!
0%!
0&!
0'!
0(!
0)!
0*!
0+!
0,!
0-!
0.!
0/!
00!
01!
02!
03!
04!
05!
06!
07!
08!
09!
0:!
0;!
0<!
0=!
0>!
0?!
0@!
0A!
0B!
0C!
0D!
0E!
0F!
0G!
zH!
zI!
zJ!
1K!
0L!
0M!
0N!
0O!
1P!
0Q!
0R!
0S!
1T!
0U!
0V!
0W!
0X!
0Y!
1Z!
1[!
0\!
0]!
0^!
0_!
0`!
0a!
0b!
0c!
0d!
0e!
0f!
0g!
0h!
0i!
0j!
1k!
0l!
0m!
0n!
0o!
0p!
0q!
0r!
0s!
0t!
0u!
0v!
0w!
0x!
0y!
0z!
1{!
0|!
0}!
0~!
0!"
0""
0#"
0$"
0%"
0&"
1'"
0("
0)"
1*"
0+"
0,"
0-"
1."
0/"
00"
11"
02"
03"
04"
15"
06"
07"
08"
09"
1:"
0;"
0<"
0="
0>"
1?"
0@"
0A"
0B"
0C"
0D"
0T"
0S"
zR"
zQ"
zP"
zO"
zN"
zM"
zL"
zK"
zJ"
zI"
zH"
zG"
zF"
zE"
0d"
0c"
zb"
za"
z`"
z_"
z^"
z]"
z\"
z["
zZ"
zY"
zX"
zW"
zV"
zU"
$end
#5000
1"
1="
1>"
1d"
1@"
#10000
0"
0="
0>"
#15000
1"
1="
1>"
1T"
1D"
1A"
1L!
1Q!
1U!
1Y!
1\!
1l!
1|!
1("
1+"
1/"
12"
16"
1;"
0:"
05"
01"
0."
0*"
0'"
0{!
0k!
0[!
0Z!
0T!
0P!
0K!
0-
04
08
00
0u
0e
0U
0K
0H
0D
0A
0=
0(
1'
1<
1@
1C
1G
1J
1T
1d
1t
1/
17
13
1,
0?"
1B"
#20000
0"
0="
0>"
#25000
1"
1="
1>"
1c"
0d"
1C"
0@"
#30000
0"
0="
0>"
#35000
1"
1="
1>"
1S"
0T"
0A"
0L!
0Q!
0U!
0Y!
0\!
0l!
0|!
0("
0+"
0/"
02"
06"
0;"
0'
0<
0@
0C
0G
0J
0T
0d
0t
0/
07
03
0,
0B"
#40000
0"
0="
0>"
#45000
1"
1="
1>"
0c"
0C"
#50000
0"
0="
0>"
#55000
1"
1="
1>"
0S"
0D"
1:"
15"
11"
1."
1*"
1'"
1{!
1k!
1[!
1Z!
1T!
1P!
1K!
1-
14
18
10
1u
1e
1U
1K
1H
1D
1A
1=
1(
1?"
#60000
0"
0="
0>"
#65000
1"
1="
1>"
1d"
1@"
#70000
0"
0="
0>"
#75000
1"
1="
1>"
1T"
1D"
1A"
1L!
1Q!
1U!
1Y!
1\!
1l!
1|!
1("
1+"
1/"
12"
16"
1;"
0:"
05"
01"
0."
0*"
0'"
0{!
0k!
0[!
0Z!
0T!
0P!
0K!
0-
04
08
00
0u
0e
0U
0K
0H
0D
0A
0=
0(
1'
1<
1@
1C
1G
1J
1T
1d
1t
1/
17
13
1,
0?"
1B"
#80000
0"
0="
0>"
#85000
1"
1="
1>"
1c"
0d"
1C"
0@"
#90000
0"
0="
0>"
#95000
1"
1="
1>"
1S"
0T"
0A"
0L!
0Q!
0U!
0Y!
0\!
0l!
0|!
0("
0+"
0/"
02"
06"
0;"
0'
0<
0@
0C
0G
0J
0T
0d
0t
0/
07
03
0,
0B"
#100000
0"
0="
0>"
#105000
1"
1="
1>"
0c"
0C"
#110000
0"
0="
0>"
#115000
1"
1="
1>"
0S"
0D"
1:"
15"
11"
1."
1*"
1'"
1{!
1k!
1[!
1Z!
1T!
1P!
1K!
1-
14
18
10
1u
1e
1U
1K
1H
1D
1A
1=
1(
1?"
#120000
0"
0="
0>"
#125000
1"
1="
1>"
1d"
1@"
#130000
0"
0="
0>"
#135000
1"
1="
1>"
1T"
1D"
1A"
1L!
1Q!
1U!
1Y!
1\!
1l!
1|!
1("
1+"
1/"
12"
16"
1;"
0:"
05"
01"
0."
0*"
0'"
0{!
0k!
0[!
0Z!
0T!
0P!
0K!
0-
04
08
00
0u
0e
0U
0K
0H
0D
0A
0=
0(
1'
1<
1@
1C
1G
1J
1T
1d
1t
1/
17
13
1,
0?"
1B"
#140000
0"
0="
0>"
#145000
1"
1="
1>"
1c"
0d"
1C"
0@"
#150000
0"
0="
0>"
#155000
1"
1="
1>"
1S"
0T"
0A"
0L!
0Q!
0U!
0Y!
0\!
0l!
0|!
0("
0+"
0/"
02"
06"
0;"
0'
0<
0@
0C
0G
0J
0T
0d
0t
0/
07
03
0,
0B"
#160000
0"
0="
0>"
#165000
1"
1="
1>"
0c"
0C"
#170000
0"
0="
0>"
#175000
1"
1="
1>"
0S"
0D"
1:"
15"
11"
1."
1*"
1'"
1{!
1k!
1[!
1Z!
1T!
1P!
1K!
1-
14
18
10
1u
1e
1U
1K
1H
1D
1A
1=
1(
1?"
#180000
0"
0="
0>"
#185000
1"
1="
1>"
1d"
1@"
#190000
0"
0="
0>"
#195000
1"
1="
1>"
1T"
1D"
1A"
1L!
1Q!
1U!
1Y!
1\!
1l!
1|!
1("
1+"
1/"
12"
16"
1;"
0:"
05"
01"
0."
0*"
0'"
0{!
0k!
0[!
0Z!
0T!
0P!
0K!
0-
04
08
00
0u
0e
0U
0K
0H
0D
0A
0=
0(
1'
1<
1@
1C
1G
1J
1T
1d
1t
1/
17
13
1,
0?"
1B"
#200000
0"
0="
0>"
#205000
1"
1="
1>"
1c"
0d"
1C"
0@"
#210000
0"
0="
0>"
#215000
1"
1="
1>"
1S"
0T"
0A"
0L!
0Q!
0U!
0Y!
0\!
0l!
0|!
0("
0+"
0/"
02"
06"
0;"
0'
0<
0@
0C
0G
0J
0T
0d
0t
0/
07
03
0,
0B"
#220000
0"
0="
0>"
#225000
1"
1="
1>"
0c"
0C"
#230000
0"
0="
0>"
#235000
1"
1="
1>"
0S"
0D"
1:"
15"
11"
1."
1*"
1'"
1{!
1k!
1[!
1Z!
1T!
1P!
1K!
1-
14
18
10
1u
1e
1U
1K
1H
1D
1A
1=
1(
1?"
#240000
0"
0="
0>"
#245000
1"
1="
1>"
1d"
1@"
#250000
0"
0="
0>"
#255000
1"
1="
1>"
1T"
1D"
1A"
1L!
1Q!
1U!
1Y!
1\!
1l!
1|!
1("
1+"
1/"
12"
16"
1;"
0:"
05"
01"
0."
0*"
0'"
0{!
0k!
0[!
0Z!
0T!
0P!
0K!
0-
04
08
00
0u
0e
0U
0K
0H
0D
0A
0=
0(
1'
1<
1@
1C
1G
1J
1T
1d
1t
1/
17
13
1,
0?"
1B"
#260000
0"
0="
0>"
#265000
1"
1="
1>"
1c"
0d"
1C"
0@"
#270000
0"
0="
0>"
#275000
1"
1="
1>"
1S"
0T"
0A"
0L!
0Q!
0U!
0Y!
0\!
0l!
0|!
0("
0+"
0/"
02"
06"
0;"
0'
0<
0@
0C
0G
0J
0T
0d
0t
0/
07
03
0,
0B"
#280000
0"
0="
0>"
#285000
1"
1="
1>"
0c"
0C"
#290000
0"
0="
0>"
#295000
1"
1="
1>"
0S"
0D"
1:"
15"
11"
1."
1*"
1'"
1{!
1k!
1[!
1Z!
1T!
1P!
1K!
1-
14
18
10
1u
1e
1U
1K
1H
1D
1A
1=
1(
1?"
#300000
0"
0="
0>"
#305000
1"
1="
1>"
1d"
1@"
#310000
0"
0="
0>"
#315000
1"
1="
1>"
1T"
1D"
1A"
1L!
1Q!
1U!
1Y!
1\!
1l!
1|!
1("
1+"
1/"
12"
16"
1;"
0:"
05"
01"
0."
0*"
0'"
0{!
0k!
0[!
0Z!
0T!
0P!
0K!
0-
04
08
00
0u
0e
0U
0K
0H
0D
0A
0=
0(
1'
1<
1@
1C
1G
1J
1T
1d
1t
1/
17
13
1,
0?"
1B"
#320000
0"
0="
0>"
#325000
1"
1="
1>"
1c"
0d"
1C"
0@"
#330000
0"
0="
0>"
#335000
1"
1="
1>"
1S"
0T"
0A"
0L!
0Q!
0U!
0Y!
0\!
0l!
0|!
0("
0+"
0/"
02"
06"
0;"
0'
0<
0@
0C
0G
0J
0T
0d
0t
0/
07
03
0,
0B"
#340000
0"
0="
0>"
#345000
1"
1="
1>"
0c"
0C"
#350000
0"
0="
0>"
#355000
1"
1="
1>"
0S"
0D"
1:"
15"
11"
1."
1*"
1'"
1{!
1k!
1[!
1Z!
1T!
1P!
1K!
1-
14
18
10
1u
1e
1U
1K
1H
1D
1A
1=
1(
1?"
#360000
0"
0="
0>"
#365000
1"
1="
1>"
1d"
1@"
#370000
0"
0="
0>"
#375000
1"
1="
1>"
1T"
1D"
1A"
1L!
1Q!
1U!
1Y!
1\!
1l!
1|!
1("
1+"
1/"
12"
16"
1;"
0:"
05"
01"
0."
0*"
0'"
0{!
0k!
0[!
0Z!
0T!
0P!
0K!
0-
04
08
00
0u
0e
0U
0K
0H
0D
0A
0=
0(
1'
1<
1@
1C
1G
1J
1T
1d
1t
1/
17
13
1,
0?"
1B"
#380000
0"
0="
0>"
#385000
1"
1="
1>"
1c"
0d"
1C"
0@"
#390000
0"
0="
0>"
#395000
1"
1="
1>"
1S"
0T"
0A"
0L!
0Q!
0U!
0Y!
0\!
0l!
0|!
0("
0+"
0/"
02"
06"
0;"
0'
0<
0@
0C
0G
0J
0T
0d
0t
0/
07
03
0,
0B"
#400000
0"
0="
0>"
#405000
1"
1="
1>"
0c"
0C"
#410000
0"
0="
0>"
#415000
1"
1="
1>"
0S"
0D"
1:"
15"
11"
1."
1*"
1'"
1{!
1k!
1[!
1Z!
1T!
1P!
1K!
1-
14
18
10
1u
1e
1U
1K
1H
1D
1A
1=
1(
1?"
#420000
0"
0="
0>"
#425000
1"
1="
1>"
1d"
1@"
#430000
0"
0="
0>"
#435000
1"
1="
1>"
1T"
1D"
1A"
1L!
1Q!
1U!
1Y!
1\!
1l!
1|!
1("
1+"
1/"
12"
16"
1;"
0:"
05"
01"
0."
0*"
0'"
0{!
0k!
0[!
0Z!
0T!
0P!
0K!
0-
04
08
00
0u
0e
0U
0K
0H
0D
0A
0=
0(
1'
1<
1@
1C
1G
1J
1T
1d
1t
1/
17
13
1,
0?"
1B"
#440000
0"
0="
0>"
#445000
1"
1="
1>"
1c"
0d"
1C"
0@"
#450000
0"
0="
0>"
#455000
1"
1="
1>"
1S"
0T"
0A"
0L!
0Q!
0U!
0Y!
0\!
0l!
0|!
0("
0+"
0/"
02"
06"
0;"
0'
0<
0@
0C
0G
0J
0T
0d
0t
0/
07
03
0,
0B"
#460000
0"
0="
0>"
#465000
1"
1="
1>"
0c"
0C"
#470000
0"
0="
0>"
#475000
1"
1="
1>"
0S"
0D"
1:"
15"
11"
1."
1*"
1'"
1{!
1k!
1[!
1Z!
1T!
1P!
1K!
1-
14
18
10
1u
1e
1U
1K
1H
1D
1A
1=
1(
1?"
#480000
0"
0="
0>"
#485000
1"
1="
1>"
1d"
1@"
#490000
0"
0="
0>"
#495000
1"
1="
1>"
1T"
1D"
1A"
1L!
1Q!
1U!
1Y!
1\!
1l!
1|!
1("
1+"
1/"
12"
16"
1;"
0:"
05"
01"
0."
0*"
0'"
0{!
0k!
0[!
0Z!
0T!
0P!
0K!
0-
04
08
00
0u
0e
0U
0K
0H
0D
0A
0=
0(
1'
1<
1@
1C
1G
1J
1T
1d
1t
1/
17
13
1,
0?"
1B"
#500000
0"
0="
0>"
#505000
1"
1="
1>"
1c"
0d"
1C"
0@"
#510000
0"
0="
0>"
#515000
1"
1="
1>"
1S"
0T"
0A"
0L!
0Q!
0U!
0Y!
0\!
0l!
0|!
0("
0+"
0/"
02"
06"
0;"
0'
0<
0@
0C
0G
0J
0T
0d
0t
0/
07
03
0,
0B"
#520000
0"
0="
0>"
#525000
1"
1="
1>"
0c"
0C"
#530000
0"
0="
0>"
#535000
1"
1="
1>"
0S"
0D"
1:"
15"
11"
1."
1*"
1'"
1{!
1k!
1[!
1Z!
1T!
1P!
1K!
1-
14
18
10
1u
1e
1U
1K
1H
1D
1A
1=
1(
1?"
#540000
0"
0="
0>"
#545000
1"
1="
1>"
1d"
1@"
#550000
0"
0="
0>"
#555000
1"
1="
1>"
1T"
1D"
1A"
1L!
1Q!
1U!
1Y!
1\!
1l!
1|!
1("
1+"
1/"
12"
16"
1;"
0:"
05"
01"
0."
0*"
0'"
0{!
0k!
0[!
0Z!
0T!
0P!
0K!
0-
04
08
00
0u
0e
0U
0K
0H
0D
0A
0=
0(
1'
1<
1@
1C
1G
1J
1T
1d
1t
1/
17
13
1,
0?"
1B"
#560000
0"
0="
0>"
#565000
1"
1="
1>"
1c"
0d"
1C"
0@"
#570000
0"
0="
0>"
#575000
1"
1="
1>"
1S"
0T"
0A"
0L!
0Q!
0U!
0Y!
0\!
0l!
0|!
0("
0+"
0/"
02"
06"
0;"
0'
0<
0@
0C
0G
0J
0T
0d
0t
0/
07
03
0,
0B"
#580000
0"
0="
0>"
#585000
1"
1="
1>"
0c"
0C"
#590000
0"
0="
0>"
#595000
1"
1="
1>"
0S"
0D"
1:"
15"
11"
1."
1*"
1'"
1{!
1k!
1[!
1Z!
1T!
1P!
1K!
1-
14
18
10
1u
1e
1U
1K
1H
1D
1A
1=
1(
1?"
#600000
0"
0="
0>"
#605000
1"
1="
1>"
1d"
1@"
#610000
0"
0="
0>"
#615000
1"
1="
1>"
1T"
1D"
1A"
1L!
1Q!
1U!
1Y!
1\!
1l!
1|!
1("
1+"
1/"
12"
16"
1;"
0:"
05"
01"
0."
0*"
0'"
0{!
0k!
0[!
0Z!
0T!
0P!
0K!
0-
04
08
00
0u
0e
0U
0K
0H
0D
0A
0=
0(
1'
1<
1@
1C
1G
1J
1T
1d
1t
1/
17
13
1,
0?"
1B"
#620000
0"
0="
0>"
#625000
1"
1="
1>"
1c"
0d"
1C"
0@"
#630000
0"
0="
0>"
#635000
1"
1="
1>"
1S"
0T"
0A"
0L!
0Q!
0U!
0Y!
0\!
0l!
0|!
0("
0+"
0/"
02"
06"
0;"
0'
0<
0@
0C
0G
0J
0T
0d
0t
0/
07
03
0,
0B"
#640000
0"
0="
0>"
#645000
1"
1="
1>"
0c"
0C"
#650000
0"
0="
0>"
#655000
1"
1="
1>"
0S"
0D"
1:"
15"
11"
1."
1*"
1'"
1{!
1k!
1[!
1Z!
1T!
1P!
1K!
1-
14
18
10
1u
1e
1U
1K
1H
1D
1A
1=
1(
1?"
#660000
0"
0="
0>"
#665000
1"
1="
1>"
1d"
1@"
#670000
0"
0="
0>"
#675000
1"
1="
1>"
1T"
1D"
1A"
1L!
1Q!
1U!
1Y!
1\!
1l!
1|!
1("
1+"
1/"
12"
16"
1;"
0:"
05"
01"
0."
0*"
0'"
0{!
0k!
0[!
0Z!
0T!
0P!
0K!
0-
04
08
00
0u
0e
0U
0K
0H
0D
0A
0=
0(
1'
1<
1@
1C
1G
1J
1T
1d
1t
1/
17
13
1,
0?"
1B"
#680000
0"
0="
0>"
#685000
1"
1="
1>"
1c"
0d"
1C"
0@"
#690000
0"
0="
0>"
#695000
1"
1="
1>"
1S"
0T"
0A"
0L!
0Q!
0U!
0Y!
0\!
0l!
0|!
0("
0+"
0/"
02"
06"
0;"
0'
0<
0@
0C
0G
0J
0T
0d
0t
0/
07
03
0,
0B"
#700000
0"
0="
0>"
#705000
1"
1="
1>"
0c"
0C"
#710000
0"
0="
0>"
#715000
1"
1="
1>"
0S"
0D"
1:"
15"
11"
1."
1*"
1'"
1{!
1k!
1[!
1Z!
1T!
1P!
1K!
1-
14
18
10
1u
1e
1U
1K
1H
1D
1A
1=
1(
1?"
#720000
0"
0="
0>"
#725000
1"
1="
1>"
1d"
1@"
#730000
0"
0="
0>"
#735000
1"
1="
1>"
1T"
1D"
1A"
1L!
1Q!
1U!
1Y!
1\!
1l!
1|!
1("
1+"
1/"
12"
16"
1;"
0:"
05"
01"
0."
0*"
0'"
0{!
0k!
0[!
0Z!
0T!
0P!
0K!
0-
04
08
00
0u
0e
0U
0K
0H
0D
0A
0=
0(
1'
1<
1@
1C
1G
1J
1T
1d
1t
1/
17
13
1,
0?"
1B"
#740000
0"
0="
0>"
#745000
1"
1="
1>"
1c"
0d"
1C"
0@"
#750000
0"
0="
0>"
#755000
1"
1="
1>"
1S"
0T"
0A"
0L!
0Q!
0U!
0Y!
0\!
0l!
0|!
0("
0+"
0/"
02"
06"
0;"
0'
0<
0@
0C
0G
0J
0T
0d
0t
0/
07
03
0,
0B"
#760000
0"
0="
0>"
#765000
1"
1="
1>"
0c"
0C"
#770000
0"
0="
0>"
#775000
1"
1="
1>"
0S"
0D"
1:"
15"
11"
1."
1*"
1'"
1{!
1k!
1[!
1Z!
1T!
1P!
1K!
1-
14
18
10
1u
1e
1U
1K
1H
1D
1A
1=
1(
1?"
#780000
0"
0="
0>"
#785000
1"
1="
1>"
1d"
1@"
#790000
0"
0="
0>"
#795000
1"
1="
1>"
1T"
1D"
1A"
1L!
1Q!
1U!
1Y!
1\!
1l!
1|!
1("
1+"
1/"
12"
16"
1;"
0:"
05"
01"
0."
0*"
0'"
0{!
0k!
0[!
0Z!
0T!
0P!
0K!
0-
04
08
00
0u
0e
0U
0K
0H
0D
0A
0=
0(
1'
1<
1@
1C
1G
1J
1T
1d
1t
1/
17
13
1,
0?"
1B"
#800000
0"
0="
0>"
#805000
1"
1="
1>"
1c"
0d"
1C"
0@"
#810000
0"
0="
0>"
#815000
1"
1="
1>"
1S"
0T"
0A"
0L!
0Q!
0U!
0Y!
0\!
0l!
0|!
0("
0+"
0/"
02"
06"
0;"
0'
0<
0@
0C
0G
0J
0T
0d
0t
0/
07
03
0,
0B"
#820000
0"
0="
0>"
#825000
1"
1="
1>"
0c"
0C"
#830000
0"
0="
0>"
#835000
1"
1="
1>"
0S"
0D"
1:"
15"
11"
1."
1*"
1'"
1{!
1k!
1[!
1Z!
1T!
1P!
1K!
1-
14
18
10
1u
1e
1U
1K
1H
1D
1A
1=
1(
1?"
#840000
0"
0="
0>"
#845000
1"
1="
1>"
1d"
1@"
#850000
0"
0="
0>"
